^C:\USERS\HILL.MATTHEW\DOCUMENTS\VISUAL STUDIO 2017\PROJECTS\HILL_MATTHEW_MATHTEACHER\HILL_MATTHEW_MATHTEACHER\DEBUG\HILL_MATTHEW_MATHTEACHER.OBJ
C:\USERS\HILL.MATTHEW\DOCUMENTS\VISUAL STUDIO 2017\PROJECTS\HILL_MATTHEW_MATHTEACHER\DEBUG\HILL_MATTHEW_MATHTEACHER.ILK
C:\USERS\HILL.MATTHEW\DOCUMENTS\VISUAL STUDIO 2017\PROJECTS\HILL_MATTHEW_MATHTEACHER\DEBUG\HILL_MATTHEW_MATHTEACHER.EXE
C:\USERS\HILL.MATTHEW\DOCUMENTS\VISUAL STUDIO 2017\PROJECTS\HILL_MATTHEW_MATHTEACHER\DEBUG\HILL_MATTHEW_MATHTEACHER.PDB
