^C:\USERS\HILL.MATTHEW\DOCUMENTS\VISUAL STUDIO 2017\PROJECTS\MULTIDIMENSIONAL ARRAY NOTES\MULTIDIMENSIONAL ARRAY NOTES\DEBUG\MDARRAY NOTES.OBJ
C:\USERS\HILL.MATTHEW\DOCUMENTS\VISUAL STUDIO 2017\PROJECTS\MULTIDIMENSIONAL ARRAY NOTES\DEBUG\MULTIDIMENSIONAL ARRAY NOTES.ILK
C:\USERS\HILL.MATTHEW\DOCUMENTS\VISUAL STUDIO 2017\PROJECTS\MULTIDIMENSIONAL ARRAY NOTES\DEBUG\MULTIDIMENSIONAL ARRAY NOTES.EXE
C:\USERS\HILL.MATTHEW\DOCUMENTS\VISUAL STUDIO 2017\PROJECTS\MULTIDIMENSIONAL ARRAY NOTES\DEBUG\MULTIDIMENSIONAL ARRAY NOTES.PDB
