^C:\USERS\HILL.MATTHEW\DOCUMENTS\VISUAL STUDIO 2017\PROJECTS\GUESS THE NUMBER 1.2\GUESS THE NUMBER 1.2\HILL_MATTHEW_GUESSTHENUMBER2.CPP
C:\USERS\HILL.MATTHEW\DOCUMENTS\VISUAL STUDIO 2017\PROJECTS\GUESS THE NUMBER 1.2\GUESS THE NUMBER 1.2\DEBUG\VC141.PDB
C:\USERS\HILL.MATTHEW\DOCUMENTS\VISUAL STUDIO 2017\PROJECTS\GUESS THE NUMBER 1.2\GUESS THE NUMBER 1.2\DEBUG\VC141.IDB
C:\USERS\HILL.MATTHEW\DOCUMENTS\VISUAL STUDIO 2017\PROJECTS\GUESS THE NUMBER 1.2\GUESS THE NUMBER 1.2\DEBUG\HILL_MATTHEW_GUESSTHENUMBER2.OBJ
