^C:\USERS\HILL.MATTHEW\DOCUMENTS\VISUAL STUDIO 2017\PROJECTS\SLOT MACHINE\SLOT MACHINE\HILL_MATTHEW_SLOTMACHINE.CPP
C:\USERS\HILL.MATTHEW\DOCUMENTS\VISUAL STUDIO 2017\PROJECTS\SLOT MACHINE\SLOT MACHINE\DEBUG\VC141.PDB
C:\USERS\HILL.MATTHEW\DOCUMENTS\VISUAL STUDIO 2017\PROJECTS\SLOT MACHINE\SLOT MACHINE\DEBUG\VC141.IDB
C:\USERS\HILL.MATTHEW\DOCUMENTS\VISUAL STUDIO 2017\PROJECTS\SLOT MACHINE\SLOT MACHINE\DEBUG\HILL_MATTHEW_SLOTMACHINE.OBJ
