^C:\USERS\HILL.MATTHEW\DOCUMENTS\VISUAL STUDIO 2017\PROJECTS\SWITCHEROO V2\SWITCHEROO V2\DEBUG\HILL_MATTHEW_SWITCHEROOV2.OBJ
C:\USERS\HILL.MATTHEW\DOCUMENTS\VISUAL STUDIO 2017\PROJECTS\SWITCHEROO V2\DEBUG\SWITCHEROO V2.ILK
C:\USERS\HILL.MATTHEW\DOCUMENTS\VISUAL STUDIO 2017\PROJECTS\SWITCHEROO V2\DEBUG\SWITCHEROO V2.EXE
C:\USERS\HILL.MATTHEW\DOCUMENTS\VISUAL STUDIO 2017\PROJECTS\SWITCHEROO V2\DEBUG\SWITCHEROO V2.PDB
