^C:\USERS\HILL.MATTHEW\DOCUMENTS\VISUAL STUDIO 2017\PROJECTS\MATHTEACHER FORMULAS\MATHTEACHER FORMULAS\DEBUG\MATHTEACHER FORMULA -- CIRCLE.OBJ|C:\USERS\HILL.MATTHEW\DOCUMENTS\VISUAL STUDIO 2017\PROJECTS\MATHTEACHER FORMULAS\MATHTEACHER FORMULAS\DEBUG\MATHTEACHER FORMULA -- SQUARE.OBJ|C:\USERS\HILL.MATTHEW\DOCUMENTS\VISUAL STUDIO 2017\PROJECTS\MATHTEACHER FORMULAS\MATHTEACHER FORMULAS\DEBUG\MATHTEACHER FORMULA -- TRIANGLE.OBJ
C:\USERS\HILL.MATTHEW\DOCUMENTS\VISUAL STUDIO 2017\PROJECTS\MATHTEACHER FORMULAS\DEBUG\MATHTEACHER FORMULAS.ILK
C:\USERS\HILL.MATTHEW\DOCUMENTS\VISUAL STUDIO 2017\PROJECTS\MATHTEACHER FORMULAS\DEBUG\MATHTEACHER FORMULAS.EXE
C:\USERS\HILL.MATTHEW\DOCUMENTS\VISUAL STUDIO 2017\PROJECTS\MATHTEACHER FORMULAS\DEBUG\MATHTEACHER FORMULAS.PDB
