^C:\USERS\HILL.MATTHEW\DOCUMENTS\VISUAL STUDIO 2017\PROJECTS\CUSTOM FUNCTIONS\CUSTOM FUNCTIONS\HILL_MATTHEW_CUSTOMFUNCTIONS.CPP
C:\USERS\HILL.MATTHEW\DOCUMENTS\VISUAL STUDIO 2017\PROJECTS\CUSTOM FUNCTIONS\CUSTOM FUNCTIONS\DEBUG\VC141.PDB
C:\USERS\HILL.MATTHEW\DOCUMENTS\VISUAL STUDIO 2017\PROJECTS\CUSTOM FUNCTIONS\CUSTOM FUNCTIONS\DEBUG\VC141.IDB
C:\USERS\HILL.MATTHEW\DOCUMENTS\VISUAL STUDIO 2017\PROJECTS\CUSTOM FUNCTIONS\CUSTOM FUNCTIONS\DEBUG\HILL_MATTHEW_CUSTOMFUNCTIONS.OBJ
