^C:\USERS\HILL.MATTHEW\DOCUMENTS\VISUAL STUDIO 2017\PROJECTS\CUSTOM FUNCTIONS\CUSTOM FUNCTIONS\DEBUG\HILL_MATTHEW_CUSTOMFUNCTIONS.OBJ
C:\USERS\HILL.MATTHEW\DOCUMENTS\VISUAL STUDIO 2017\PROJECTS\CUSTOM FUNCTIONS\DEBUG\CUSTOM FUNCTIONS.ILK
C:\USERS\HILL.MATTHEW\DOCUMENTS\VISUAL STUDIO 2017\PROJECTS\CUSTOM FUNCTIONS\DEBUG\CUSTOM FUNCTIONS.EXE
C:\USERS\HILL.MATTHEW\DOCUMENTS\VISUAL STUDIO 2017\PROJECTS\CUSTOM FUNCTIONS\DEBUG\CUSTOM FUNCTIONS.PDB
