^C:\USERS\HILL.MATTHEW\DOCUMENTS\VISUAL STUDIO 2017\PROJECTS\TRIVIA TIME\TRIVIA TIME\DEBUG\HILL_MATTHEW_TRIVIATIME.OBJ
C:\USERS\HILL.MATTHEW\DOCUMENTS\VISUAL STUDIO 2017\PROJECTS\TRIVIA TIME\DEBUG\TRIVIA TIME.ILK
C:\USERS\HILL.MATTHEW\DOCUMENTS\VISUAL STUDIO 2017\PROJECTS\TRIVIA TIME\DEBUG\TRIVIA TIME.EXE
C:\USERS\HILL.MATTHEW\DOCUMENTS\VISUAL STUDIO 2017\PROJECTS\TRIVIA TIME\DEBUG\TRIVIA TIME.PDB
