^C:\USERS\HILL.MATTHEW\DOCUMENTS\VISUAL STUDIO 2017\PROJECTS\VECTORS NOTES\VECTORS NOTES\DEBUG\VECTORS NOTES.OBJ
C:\USERS\HILL.MATTHEW\DOCUMENTS\VISUAL STUDIO 2017\PROJECTS\VECTORS NOTES\DEBUG\VECTORS NOTES.ILK
C:\USERS\HILL.MATTHEW\DOCUMENTS\VISUAL STUDIO 2017\PROJECTS\VECTORS NOTES\DEBUG\VECTORS NOTES.EXE
C:\USERS\HILL.MATTHEW\DOCUMENTS\VISUAL STUDIO 2017\PROJECTS\VECTORS NOTES\DEBUG\VECTORS NOTES.PDB
