^C:\USERS\HILL.MATTHEW\DOCUMENTS\VISUAL STUDIO 2017\PROJECTS\HELLO YOU!\HELLO YOU!\MAIN.CPP
C:\USERS\HILL.MATTHEW\DOCUMENTS\VISUAL STUDIO 2017\PROJECTS\HELLO YOU!\HELLO YOU!\X64\DEBUG\VC141.PDB
C:\USERS\HILL.MATTHEW\DOCUMENTS\VISUAL STUDIO 2017\PROJECTS\HELLO YOU!\HELLO YOU!\X64\DEBUG\VC141.IDB
C:\USERS\HILL.MATTHEW\DOCUMENTS\VISUAL STUDIO 2017\PROJECTS\HELLO YOU!\HELLO YOU!\X64\DEBUG\MAIN.OBJ
