^C:\USERS\HILL.MATTHEW\DOCUMENTS\VISUAL STUDIO 2017\PROJECTS\RELATIONAL OPERATORS\RELATIONAL OPERATORS\MAIN.CPP
C:\USERS\HILL.MATTHEW\DOCUMENTS\VISUAL STUDIO 2017\PROJECTS\RELATIONAL OPERATORS\RELATIONAL OPERATORS\DEBUG\VC141.PDB
C:\USERS\HILL.MATTHEW\DOCUMENTS\VISUAL STUDIO 2017\PROJECTS\RELATIONAL OPERATORS\RELATIONAL OPERATORS\DEBUG\VC141.IDB
C:\USERS\HILL.MATTHEW\DOCUMENTS\VISUAL STUDIO 2017\PROJECTS\RELATIONAL OPERATORS\RELATIONAL OPERATORS\DEBUG\MAIN.OBJ
