^C:\USERS\HILL.MATTHEW\DOCUMENTS\VISUAL STUDIO 2017\PROJECTS\RELATIONAL OPERATORS\RELATIONAL OPERATORS\DEBUG\MAIN.OBJ
C:\USERS\HILL.MATTHEW\DOCUMENTS\VISUAL STUDIO 2017\PROJECTS\RELATIONAL OPERATORS\DEBUG\RELATIONAL OPERATORS.ILK
C:\USERS\HILL.MATTHEW\DOCUMENTS\VISUAL STUDIO 2017\PROJECTS\RELATIONAL OPERATORS\DEBUG\RELATIONAL OPERATORS.EXE
C:\USERS\HILL.MATTHEW\DOCUMENTS\VISUAL STUDIO 2017\PROJECTS\RELATIONAL OPERATORS\DEBUG\RELATIONAL OPERATORS.PDB
