^C:\USERS\HILL.MATTHEW\DOCUMENTS\VISUAL STUDIO 2017\PROJECTS\ARRAYS NOTES\ARRAYS NOTES\DEBUG\ARRAYS NOTES.OBJ
C:\USERS\HILL.MATTHEW\DOCUMENTS\VISUAL STUDIO 2017\PROJECTS\ARRAYS NOTES\DEBUG\ARRAYS NOTES.ILK
C:\USERS\HILL.MATTHEW\DOCUMENTS\VISUAL STUDIO 2017\PROJECTS\ARRAYS NOTES\DEBUG\ARRAYS NOTES.EXE
C:\USERS\HILL.MATTHEW\DOCUMENTS\VISUAL STUDIO 2017\PROJECTS\ARRAYS NOTES\DEBUG\ARRAYS NOTES.PDB
