^C:\USERS\HILL.MATTHEW\DOCUMENTS\VISUAL STUDIO 2017\PROJECTS\TIC-TAC-TOE REVISITED\TIC-TAC-TOE REVISITED\HILL_MATTHEW_TICTACTOEREVISITED.CPP
C:\USERS\HILL.MATTHEW\DOCUMENTS\VISUAL STUDIO 2017\PROJECTS\TIC-TAC-TOE REVISITED\TIC-TAC-TOE REVISITED\DEBUG\VC141.PDB
C:\USERS\HILL.MATTHEW\DOCUMENTS\VISUAL STUDIO 2017\PROJECTS\TIC-TAC-TOE REVISITED\TIC-TAC-TOE REVISITED\DEBUG\VC141.IDB
C:\USERS\HILL.MATTHEW\DOCUMENTS\VISUAL STUDIO 2017\PROJECTS\TIC-TAC-TOE REVISITED\TIC-TAC-TOE REVISITED\DEBUG\HILL_MATTHEW_TICTACTOEREVISITED.OBJ
