﻿  MathTeacher Formula -- Circle.cpp
  MathTeacher Formulas.vcxproj -> c:\users\hill.matthew\documents\visual studio 2017\Projects\MathTeacher Formulas\Debug\MathTeacher Formulas.exe
  MathTeacher Formulas.vcxproj -> c:\users\hill.matthew\documents\visual studio 2017\Projects\MathTeacher Formulas\Debug\MathTeacher Formulas.pdb (Partial PDB)
