﻿  main.cpp
c:\users\hill.matthew\documents\visual studio 2017\projects\relational operators\relational operators\main.cpp(32): warning C4244: 'argument': conversion from 'time_t' to 'unsigned int', possible loss of data
  Relational Operators.vcxproj -> c:\users\hill.matthew\documents\visual studio 2017\Projects\Relational Operators\Debug\Relational Operators.exe
  Relational Operators.vcxproj -> c:\users\hill.matthew\documents\visual studio 2017\Projects\Relational Operators\Debug\Relational Operators.pdb (Partial PDB)
