^C:\USERS\HILL.MATTHEW\DOCUMENTS\VISUAL STUDIO 2017\PROJECTS\RECURSION ASSIGNMENT\RECURSION ASSIGNMENT\HILL_MATTHEW_LOOPINGWITHOUTLOOPS.CPP
C:\USERS\HILL.MATTHEW\DOCUMENTS\VISUAL STUDIO 2017\PROJECTS\RECURSION ASSIGNMENT\RECURSION ASSIGNMENT\DEBUG\VC141.PDB
C:\USERS\HILL.MATTHEW\DOCUMENTS\VISUAL STUDIO 2017\PROJECTS\RECURSION ASSIGNMENT\RECURSION ASSIGNMENT\DEBUG\VC141.IDB
C:\USERS\HILL.MATTHEW\DOCUMENTS\VISUAL STUDIO 2017\PROJECTS\RECURSION ASSIGNMENT\RECURSION ASSIGNMENT\DEBUG\HILL_MATTHEW_LOOPINGWITHOUTLOOPS.OBJ
