^C:\USERS\HILL.MATTHEW\DOCUMENTS\VISUAL STUDIO 2017\PROJECTS\ROMAN NUMERALS\ROMAN NUMERALS\DEBUG\HILL_MATTHEW_ROMANNUMERALS.OBJ
C:\USERS\HILL.MATTHEW\DOCUMENTS\VISUAL STUDIO 2017\PROJECTS\ROMAN NUMERALS\DEBUG\ROMAN NUMERALS.ILK
C:\USERS\HILL.MATTHEW\DOCUMENTS\VISUAL STUDIO 2017\PROJECTS\ROMAN NUMERALS\DEBUG\ROMAN NUMERALS.EXE
C:\USERS\HILL.MATTHEW\DOCUMENTS\VISUAL STUDIO 2017\PROJECTS\ROMAN NUMERALS\DEBUG\ROMAN NUMERALS.PDB
